{
	"Hour": "8",
	"description": "",
	"startDate": "2017/01/26",
	"endDate": "2017/01/26",
	"startTime": "09:00",
	"endTime": "18:00",
	"leaveType": "年假",
	"fillerID": "H197226141",
	"applicantDept": "",
	"ApplcantID": "",
	"flexitime": ""
}