[
  {
    "id": "H197226141",
    "name": "王勝枝",
    "departmentId": "bc1dc906-1800-4507-8a30-24e79a02062d"
  },
  {
    "id": "D193146460",
    "name": "蔡瑋倫",
    "departmentId": "bc1dc906-1800-4507-8a30-24e79a02062d"
  },
  {
    "id": "B191538842",
    "name": "袁亭君",
    "departmentId": "bf98bbe6-e10c-46f2-b1ee-8480ae7c4180"
  },
  {
    "id": "C196749471",
    "name": "蔡嘉玲",
    "departmentId": "f9d5e1bd-9ce0-4839-a644-5d801de8bd74"
  },
  {
    "id": "E194430560",
    "name": "翁幼亮",
    "departmentId": "ba097624-6f3a-45bd-a226-5d80ff83797b"
  },
  {
    "id": "E296811038",
    "name": "張姿君",
    "departmentId": "dc6549d2-2461-4e27-bac6-6b6fea83670c"
  },
  {
    "id": "A299903002",
    "name": "羅姿仁",
    "departmentId": "ba097624-6f3a-45bd-a226-5d80ff83797b"
  },
  {
    "id": "G196187411",
    "name": "侯佳穎",
    "departmentId": "201b536f-2be3-428b-ae1f-518c63b10788"
  },
  {
    "id": "B292286867",
    "name": "陳惠靖",
    "departmentId": "dede3adf-0a35-4613-a150-db1036053bc4"
  },
  {
    "id": "G192226739",
    "name": "李苑誠",
    "departmentId": "dede3adf-0a35-4613-a150-db1036053bc4"
  }
]